<svg width="512" height="512" viewBox="0 0 512 512" fill="none" xmlns="http://www.w3.org/2000/svg">
<g clip-path="url(#clip0_215_47453)">
<path fill-rule="evenodd" clip-rule="evenodd" d="M46 0C20.5949 0 0 20.595 0 46V466C0 491.405 20.5949 512 46 512H466C491.405 512 512 491.405 512 466V46C512 20.595 491.405 0 466 0H46ZM366.444 254.344V255.87V256.222C366.444 317.026 317.026 366.444 256.222 366.444C195.418 366.444 146 317.026 146 256.222C146 195.418 195.418 146 256.222 146H257.396V185.206H256.222C217.016 185.206 185.206 217.016 185.206 256.222C185.206 295.428 217.016 327.239 256.222 327.239C295.428 327.239 327.239 295.428 327.239 256.222V255.87V254.344H366.444Z" fill="#222222"/>
</g>
<defs>
<clipPath id="clip0_215_47453">
<rect width="512" height="512" fill="white"/>
</clipPath>
</defs>
</svg>
